{
  "userAgent": "GitlabK6PerformanceTest/1.0",
  "stages": [
    { "duration": "5s", "target": 20 },
    { "duration": "5s", "target": 200 },
    { "duration": "50s", "target": 200 }
  ],
  "rps": 200
}
